{
  "IcoMoonType": "selection",
  "icons": [
    {
      "icon": {
        "paths": [
          "M978.812 182.246c3.787-12.886-6.54-26.276-20.331-26.801-111.559-4.269-225.506 3.406-338.736-3.235-186.451-10.942-378.841 4.145-561.478 42.955-21.065 4.478-19.683 28.194-6.363 38.552 0.487 3.037 1.687 6.159 4.028 9.148 64.26 82.047 162.772 150.293 246.426 212.127 70.007 51.749 187.94 144.262 284.314 120.942 87.093-21.081 145.928-96.498 207.376-156.436 42.665-41.616 133.48-104.366 157.925-171.856 5.667-7.702 11.339-15.393 17.187-22.945 1.2-1.259 2.282-2.592 3.487-3.835 1.703-1.741 2.63-3.621 3.562-5.49 1.227-1.591 2.533-3.117 3.642-4.794 1.462-2.212 7.75-12.035 3.658-6.149 3.364-8.639 1.36-17.241-4.697-22.184z",
          "M216.042 433.541c-23.277-13.154-47.191-25.21-70.934-37.524-19.388-12.929-38.627-26.057-57.239-40.052-5.849-4.917-11.794-9.726-17.701-14.573-1.81-6.695-6.904-11.938-14.643-12.056-2.496-1.987-4.874-4.124-7.391-6.090-4.494-3.508-9.394-4.67-14.081-4.472-2.807-4.312-5.897-8.43-9.351-12.287-0.321-0.359-1.034-0.391-1.35 0-40.743 49.794-17.353 115.49-9.871 175.851 13.138 105.972 30.652 210.006 27.181 317.167-0.712 21.986 25.505 29.238 40.218 16.657 82.604-70.666 200.622-192.39 209.535-306.675 3.015-38.718-47.486-60.747-74.372-75.947z",
          "M1014.67 307.157c-0.878-9.7-7.579-14.611-14.616-15.13-2.935-18.789-30.020-21.145-40.459-6.015-8.141 11.794-16.030 23.737-23.85 35.719-20.444 19.812-37.625 47.255-52.37 65.262-41.626 50.855-81.453 103.155-123.213 153.913-9.078 11.033-9.4 23.904 0 34.91 69.343 81.169 137.133 164.191 226.283 224.515 15.505 10.487 36.485-3.46 36.447-20.915-0.321-157.036 5.95-315.737-8.221-472.259z",
          "M877.735 794.124c-0.005-0.021-0.005-0.037-0.011-0.054-12.41-32.537-44.968-58.278-68.111-83.274-43.86-47.362-89.326-93.236-140.931-132.168-8.286-6.25-21.113-2.946-27.958 3.61-6.443 6.154-13.181 11.397-20.117 15.993-15.768-1.355-31.702-1.055-46.859-0.070-71.421 4.665-110.396 15.789-175.567-30.93-8.248-5.913-23.411-4.076-29.854 3.851-60.265 74.062-108.704 156.554-165.862 232.876-8.275 7.514-16.871 14.702-26.233 21.102-0.921 0.632-1.398 1.435-2.153 2.142-28.729 0.905-28.017 43.356 0.664 45.215 228.296 14.879 455.222-33.448 683.25-37.679 19.844-0.353 33.159-25.141 19.742-40.614z"
        ],
        "attrs": [
          {},
          {},
          {},
          {}
        ],
        "isMulticolor": false,
        "isMulticolor2": false,
        "grid": 0,
        "tags": [
          "mail-envelope"
        ]
      },
      "attrs": [
        {},
        {},
        {},
        {}
      ],
      "properties": {
        "order": 2,
        "id": 0,
        "name": "mail-envelope",
        "prevSize": 32,
        "code": 59648
      },
      "setIdx": 0,
      "setId": 2,
      "iconIdx": 0
    }
  ],
  "height": 1024,
  "metadata": {
    "name": "icomoon"
  },
  "preferences": {
    "showGlyphs": true,
    "showQuickUse": true,
    "showQuickUse2": true,
    "showSVGs": true,
    "fontPref": {
      "prefix": "icon-",
      "metadata": {
        "fontFamily": "icomoon"
      },
      "metrics": {
        "emSize": 1024,
        "baseline": 6.25,
        "whitespace": 50
      },
      "embed": false
    },
    "imagePref": {
      "prefix": "icon-",
      "png": true,
      "useClassSelector": true,
      "color": 0,
      "bgColor": 16777215,
      "classSelector": ".icon"
    },
    "historySize": 50,
    "showCodes": true,
    "gridSize": 16
  }
}